D:\jmrtd\jmrtd\src\test\java\org\jmrtd\test\lds\DG11FileTest.java
D:\jmrtd\jmrtd\src\test\java\org\jmrtd\test\lds\FaceInfoTest.java
D:\jmrtd\jmrtd\src\test\java\org\jmrtd\test\UtilTest.java
D:\jmrtd\jmrtd\src\test\java\org\jmrtd\test\protocol\DESedeSecureMessagingWrapperTest.java
D:\jmrtd\jmrtd\src\test\java\org\jmrtd\test\lds\DG15FileTest.java
D:\jmrtd\jmrtd\src\test\java\org\jmrtd\test\protocol\CAResultTest.java
D:\jmrtd\jmrtd\src\test\java\org\jmrtd\test\lds\COMFileTest.java
D:\jmrtd\jmrtd\src\test\java\org\jmrtd\test\cert\CVCPrincipalTest.java
D:\jmrtd\jmrtd\src\test\java\org\jmrtd\test\lds\TerminalAuthenticationInfoTest.java
D:\jmrtd\jmrtd\src\test\java\org\jmrtd\test\protocol\PACEProtocolTest.java
D:\jmrtd\jmrtd\src\test\java\org\jmrtd\test\lds\CardAccessFileTest.java
D:\jmrtd\jmrtd\src\test\java\org\jmrtd\test\PACEKeySpecTest.java
D:\jmrtd\jmrtd\src\test\java\org\jmrtd\test\lds\DG3FileTest.java
D:\jmrtd\jmrtd\src\test\java\org\jmrtd\test\cert\CardVerifiableCertificateTest.java
D:\jmrtd\jmrtd\src\test\java\org\jmrtd\test\lds\DG1FileTest.java
D:\jmrtd\jmrtd\src\test\java\org\jmrtd\test\protocol\BACResultTest.java
D:\jmrtd\jmrtd\src\test\java\org\jmrtd\test\protocol\PACEResultTest.java
D:\jmrtd\jmrtd\src\test\java\org\jmrtd\test\lds\FingerInfoTest.java
D:\jmrtd\jmrtd\src\test\java\org\jmrtd\test\lds\PACEInfoTest.java
D:\jmrtd\jmrtd\src\test\java\org\jmrtd\test\lds\PACEDomainParameterInfoTest.java
D:\jmrtd\jmrtd\src\test\java\org\jmrtd\test\lds\DisplayedImageInfoTest.java
D:\jmrtd\jmrtd\src\test\java\org\jmrtd\test\lds\CardSecurityFileTest.java
D:\jmrtd\jmrtd\src\test\java\org\jmrtd\test\cert\CVCAuthorizationTemplateTest.java
D:\jmrtd\jmrtd\src\test\java\org\jmrtd\test\CertificateUtil.java
D:\jmrtd\jmrtd\src\test\java\org\jmrtd\test\protocol\AESSecureMessagingWrapperTest.java
D:\jmrtd\jmrtd\src\test\java\org\jmrtd\test\protocol\PACECAMResultTest.java
D:\jmrtd\jmrtd\src\test\java\org\jmrtd\test\lds\DG14FileTest.java
D:\jmrtd\jmrtd\src\test\java\org\jmrtd\test\lds\DG12FileTest.java
D:\jmrtd\jmrtd\src\test\java\org\jmrtd\test\lds\CVCAFileTest.java
D:\jmrtd\jmrtd\src\test\java\org\jmrtd\test\BACKeyTest.java
D:\jmrtd\jmrtd\src\test\java\org\jmrtd\test\lds\ChipAuthenticationPublicKeyInfoTest.java
D:\jmrtd\jmrtd\src\test\java\org\jmrtd\test\lds\LDSFileUtilTest.java
D:\jmrtd\jmrtd\src\test\java\org\jmrtd\test\protocol\TAResultTest.java
D:\jmrtd\jmrtd\src\test\java\org\jmrtd\test\ResourceUtil.java
D:\jmrtd\jmrtd\src\test\java\org\jmrtd\test\protocol\PACEGMWithECDHAgreementTest.java
D:\jmrtd\jmrtd\src\test\java\org\jmrtd\test\lds\CountryTest.java
D:\jmrtd\jmrtd\src\test\java\org\jmrtd\test\lds\DG2FileTest.java
D:\jmrtd\jmrtd\src\test\java\org\jmrtd\test\lds\DG5FileTest.java
D:\jmrtd\jmrtd\src\test\java\org\jmrtd\test\lds\DG4FileTest.java
D:\jmrtd\jmrtd\src\test\java\org\jmrtd\test\lds\DG6FileTest.java
D:\jmrtd\jmrtd\src\test\java\org\jmrtd\test\lds\DG7FileTest.java
D:\jmrtd\jmrtd\src\test\java\org\jmrtd\test\lds\IrisBiometricSubtypeInfoTest.java
D:\jmrtd\jmrtd\src\test\java\org\jmrtd\test\lds\SODFileTest.java
D:\jmrtd\jmrtd\src\test\java\org\jmrtd\test\lds\IrisInfoTest.java
D:\jmrtd\jmrtd\src\test\java\org\jmrtd\test\UnlimitedStrengthCryptoTest.java
D:\jmrtd\jmrtd\src\test\java\org\jmrtd\test\lds\FaceImageInfoTest.java
D:\jmrtd\jmrtd\src\test\java\org\jmrtd\test\lds\MRZInfoTest.java
D:\jmrtd\jmrtd\src\test\java\org\jmrtd\test\lds\IrisImageInfoTest.java
D:\jmrtd\jmrtd\src\test\java\org\jmrtd\test\protocol\AAResultTest.java
D:\jmrtd\jmrtd\src\test\java\org\jmrtd\test\lds\FingerImageInfoTest.java
D:\jmrtd\jmrtd\src\test\java\org\jmrtd\test\lds\ActiveAuthenticationInfoTest.java
